flake,contact_1,contact_2,distance
1,11,12,2
1,11,13,5
1,11,14,8
1,11,15,5
1,11,16,2
1,12,13,2
1,12,14,5
1,12,15,2.828
1,12,16,2
1,13,14,2
1,13,15,2
1,13,16,2.828
1,14,15,2
1,14,16,5
1,15,16,2
2,21,22,2
2,21,23,5
2,21,24,8
2,21,25,11
2,21,26,14
2,22,23,2
2,22,24,5
2,22,25,8
2,22,26,11
2,23,24,2
2,23,25,5
2,23,26,8
2,24,25,2
2,24,26,5
2,25,26,2
4,41,42,2
4,41,43,5
4,41,44,2.828
4,41,45,2
4,41,46,2
4,42,43,2
4,42,44,2
4,42,45,2.828
4,42,46,5
4,43,44,2
4,43,45,5
4,43,46,8
4,44,45,2
4,44,46,5
4,45,46,2
5,51,52,2
5,51,53,5
5,51,54,2.828
5,51,55,2
5,51,56,2
5,52,53,2
5,52,54,2
5,52,55,2.828
5,52,56,5
5,53,54,2
5,53,55,5
5,53,56,8
5,54,55,2
5,54,56,5
5,55,56,2
